{
    "Alpha": 1.0,
    "WindowPadding": [
        8.0,
        8.0
    ],
    "WindowMinSize": [
        0.0,
        0.0
    ],
    "WindowRounding": 0.0,
    "WindowTitleAlign": [
        0.0,
        0.5
    ],
    "FramePadding": [
        4.0,
        3.0
    ],
    "FrameRounding": 3.0,
    "ItemSpacing": [
        8.0,
        4.0
    ],
    "ItemInnerSpacing": [
        4.0,
        4.0
    ],
    "TouchExtraPadding": [
        0.0,
        0.0
    ],
    "IndentSpacing": 21.0,
    "ColumnsMinSpacing": 6.0,
    "ScrollbarSize": 16.0,
    "ScrollbarRounding": 9.0,
    "GrabMinSize": 10.0,
    "GrabRounding": 0.0,
    "ButtonTextAlign": [
        0.5,
        0.5
    ],
    "DisplayWindowPadding": [
        22.0,
        22.0
    ],
    "DisplaySafeAreaPadding": [
        4.0,
        4.0
    ],
    "AntiAliasedLines": true,
    "CurveTessellationTol": 1.25,
    "Alpha": 1.0,
    "Text": [
        0.0,
        0.0,
        0.0,
        1.0
    ],
    "TextDisabled": [
        0.6000000238418579,
        0.6000000238418579,
        0.6000000238418579,
        1.0
    ],
    "WindowBg": [
        0.9399999976158142,
        0.9399999976158142,
        0.9399999976158142,
        0.9399999976158142
    ],
    "ChildWindowBg": [
        0.0,
        0.0,
        0.0,
        0.0
    ],
    "PopupBg": [
        1.0,
        1.0,
        1.0,
        0.9399999976158142
    ],
    "Border": [
        0.0,
        0.0,
        0.0,
        0.38999998569488528
    ],
    "BorderShadow": [
        1.0,
        1.0,
        1.0,
        0.10000000149011612
    ],
    "FrameBg": [
        1.0,
        1.0,
        1.0,
        0.9399999976158142
    ],
    "FrameBgHovered": [
        0.25999999046325686,
        0.5899999737739563,
        0.9800000190734863,
        0.4000000059604645
    ],
    "FrameBgActive": [
        0.25999999046325686,
        0.5899999737739563,
        0.9800000190734863,
        0.6700000166893005
    ],
    "TitleBg": [
        0.9599999785423279,
        0.9599999785423279,
        0.9599999785423279,
        1.0
    ],
    "TitleBgActive": [
        0.8199999928474426,
        0.8199999928474426,
        0.8199999928474426,
        1.0
    ],
    "TitleBgCollapsed": [
        1.0,
        1.0,
        1.0,
        0.5099999904632568
    ],
    "MenuBarBg": [
        0.8600000143051148,
        0.8600000143051148,
        0.8600000143051148,
        1.0
    ],
    "ScrollbarBg": [
        0.9800000190734863,
        0.9800000190734863,
        0.9800000190734863,
        0.5299999713897705
    ],
    "ScrollbarGrab": [
        0.6899999976158142,
        0.6899999976158142,
        0.6899999976158142,
        1.0
    ],
    "ScrollbarGrabHovered": [
        0.5899999737739563,
        0.5899999737739563,
        0.5899999737739563,
        1.0
    ],
    "ScrollbarGrabActive": [
        0.49000000953674319,
        0.49000000953674319,
        0.49000000953674319,
        1.0
    ],
    "ComboBg": [
        0.8600000143051148,
        0.8600000143051148,
        0.8600000143051148,
        0.9900000095367432
    ],
    "CheckMark": [
        0.25999999046325686,
        0.5899999737739563,
        0.9800000190734863,
        1.0
    ],
    "SliderGrab": [
        0.23999999463558198,
        0.5199999809265137,
        0.8799999952316284,
        1.0
    ],
    "SliderGrabActive": [
        0.25999999046325686,
        0.5899999737739563,
        0.9800000190734863,
        1.0
    ],
    "Button": [
        0.25999999046325686,
        0.5899999737739563,
        0.9800000190734863,
        0.4000000059604645
    ],
    "ButtonHovered": [
        0.25999999046325686,
        0.5899999737739563,
        0.9800000190734863,
        1.0
    ],
    "ButtonActive": [
        0.05999999865889549,
        0.5299999713897705,
        0.9800000190734863,
        1.0
    ],
    "Header": [
        0.25999999046325686,
        0.5899999737739563,
        0.9800000190734863,
        0.3100000023841858
    ],
    "HeaderHovered": [
        0.25999999046325686,
        0.5899999737739563,
        0.9800000190734863,
        0.800000011920929
    ],
    "HeaderActive": [
        0.25999999046325686,
        0.5899999737739563,
        0.9800000190734863,
        1.0
    ],
    "Separator": [
        0.38999998569488528,
        0.38999998569488528,
        0.38999998569488528,
        1.0
    ],
    "SeparatorHovered": [
        0.25999999046325686,
        0.5899999737739563,
        0.9800000190734863,
        0.7799999713897705
    ],
    "SeparatorActive": [
        0.25999999046325686,
        0.5899999737739563,
        0.9800000190734863,
        1.0
    ],
    "ResizeGrip": [
        1.0,
        1.0,
        1.0,
        0.5
    ],
    "ResizeGripHovered": [
        0.25999999046325686,
        0.5899999737739563,
        0.9800000190734863,
        0.6700000166893005
    ],
    "ResizeGripActive": [
        0.25999999046325686,
        0.5899999737739563,
        0.9800000190734863,
        0.949999988079071
    ],
    "CloseButton": [
        0.5899999737739563,
        0.5899999737739563,
        0.5899999737739563,
        0.5
    ],
    "CloseButtonHovered": [
        0.9800000190734863,
        0.38999998569488528,
        0.36000001430511477,
        1.0
    ],
    "CloseButtonActive": [
        0.9800000190734863,
        0.38999998569488528,
        0.36000001430511477,
        1.0
    ],
    "PlotLines": [
        0.38999998569488528,
        0.38999998569488528,
        0.38999998569488528,
        1.0
    ],
    "PlotLinesHovered": [
        1.0,
        0.4300000071525574,
        0.3499999940395355,
        1.0
    ],
    "PlotHistogram": [
        0.8999999761581421,
        0.699999988079071,
        0.0,
        1.0
    ],
    "PlotHistogramHovered": [
        1.0,
        0.6000000238418579,
        0.0,
        1.0
    ],
    "TextSelectedBg": [
        0.25999999046325686,
        0.5899999737739563,
        0.9800000190734863,
        0.3499999940395355
    ],
    "ModalWindowDarkening": [
        0.20000000298023225,
        0.20000000298023225,
        0.20000000298023225,
        0.3499999940395355
    ]
}